<?xml version="1.0" encoding="UTF-8" standalone="no"?>
<!-- Created with Inkscape (http://www.inkscape.org/) -->

<svg
   xmlns:dc="http://purl.org/dc/elements/1.1/"
   xmlns:cc="http://creativecommons.org/ns#"
   xmlns:rdf="http://www.w3.org/1999/02/22-rdf-syntax-ns#"
   xmlns:svg="http://www.w3.org/2000/svg"
   xmlns="http://www.w3.org/2000/svg"
   xmlns:xlink="http://www.w3.org/1999/xlink"
   xmlns:sodipodi="http://sodipodi.sourceforge.net/DTD/sodipodi-0.dtd"
   xmlns:inkscape="http://www.inkscape.org/namespaces/inkscape"
   width="128"
   height="256"
   viewBox="0 0 33.866666 67.733336"
   version="1.1"
   id="svg8"
   inkscape:version="0.92.4 (5da689c313, 2019-01-14)"
   sodipodi:docname="Player_shock.svg">
  <defs
     id="defs2">
    <linearGradient
       inkscape:collect="always"
       id="linearGradient939">
      <stop
         style="stop-color:#9e0000;stop-opacity:1"
         offset="0"
         id="stop935" />
      <stop
         style="stop-color:#8c00ff;stop-opacity:1"
         offset="1"
         id="stop937" />
    </linearGradient>
    <linearGradient
       inkscape:collect="always"
       xlink:href="#linearGradient939"
       id="linearGradient889"
       x1="58.99316"
       y1="43.836075"
       x2="55.546009"
       y2="22.71126"
       gradientUnits="userSpaceOnUse" />
    <linearGradient
       inkscape:collect="always"
       xlink:href="#linearGradient939"
       id="linearGradient897"
       x1="50.667542"
       y1="38.527866"
       x2="46.732243"
       y2="23.231691"
       gradientUnits="userSpaceOnUse" />
    <linearGradient
       inkscape:collect="always"
       xlink:href="#linearGradient939"
       id="linearGradient905"
       x1="69.720406"
       y1="33.150402"
       x2="64.15123"
       y2="18.831491"
       gradientUnits="userSpaceOnUse" />
    <linearGradient
       inkscape:collect="always"
       xlink:href="#linearGradient939"
       id="linearGradient927"
       x1="6.1793237"
       y1="244.84673"
       x2="17.156157"
       y2="241.03481"
       gradientUnits="userSpaceOnUse" />
  </defs>
  <sodipodi:namedview
     id="base"
     pagecolor="#ffffff"
     bordercolor="#666666"
     borderopacity="1.0"
     inkscape:pageopacity="0.0"
     inkscape:pageshadow="2"
     inkscape:zoom="11.313708"
     inkscape:cx="51.275211"
     inkscape:cy="211.8367"
     inkscape:document-units="mm"
     inkscape:current-layer="layer1"
     showgrid="false"
     units="px"
     inkscape:window-width="1858"
     inkscape:window-height="1057"
     inkscape:window-x="3894"
     inkscape:window-y="-8"
     inkscape:window-maximized="1" />
  <metadata
     id="metadata5">
    <rdf:RDF>
      <cc:Work
         rdf:about="">
        <dc:format>image/svg+xml</dc:format>
        <dc:type
           rdf:resource="http://purl.org/dc/dcmitype/StillImage" />
        <dc:title />
      </cc:Work>
    </rdf:RDF>
  </metadata>
  <g
     inkscape:groupmode="layer"
     id="layer4"
     inkscape:label="Layer 4">
    <path
       style="fill:none;stroke:#000000;stroke-width:0.52916667;stroke-linecap:butt;stroke-linejoin:miter;stroke-opacity:1;stroke-miterlimit:4;stroke-dasharray:none"
       d="M 10.70145,9.8793524 C 12.55564,12.00784 13.698696,12.016216 14.930059,8.4146947 11.94872,4.4653596 11.660578,6.9591235 10.70145,9.8793524 Z"
       id="path4504"
       inkscape:connector-curvature="0"
       sodipodi:nodetypes="ccc" />
    <path
       style="fill:none;stroke:#000000;stroke-width:0.52916667;stroke-linecap:butt;stroke-linejoin:miter;stroke-opacity:1;stroke-miterlimit:4;stroke-dasharray:none"
       d="m 15.733259,7.3280131 c 3.90251,4.8055669 3.049654,2.2795018 4.063244,-0.377976 -2.927338,-2.9922756 -2.667344,-1.8578069 -4.063244,0.377976 z"
       id="path4508"
       inkscape:connector-curvature="0"
       sodipodi:nodetypes="ccc" />
    <path
       style="fill:url(#linearGradient897);fill-opacity:1;stroke-width:2.00000003;stroke-miterlimit:4;stroke-dasharray:none"
       d="m 47.792903,32.777634 c -0.736607,-0.388488 -2.042411,-1.035463 -2.901786,-1.437723 -0.859375,-0.40226 -1.597517,-0.761897 -1.640316,-0.799193 -0.0428,-0.0373 0.09313,-0.522973 0.302059,-1.079281 1.058394,-2.818116 2.100954,-4.364467 3.183409,-4.721709 0.562583,-0.185669 1.425274,-0.07338 2.172705,0.282804 0.767132,0.365571 1.882381,1.183981 2.569624,1.885682 l 0.47141,0.481327 -0.5028,1.065927 c -0.437781,0.928091 -1.964964,4.445442 -2.120081,4.882892 -0.03047,0.08594 -0.0868,0.153858 -0.125172,0.150933 -0.03837,-0.0029 -0.672445,-0.323171 -1.409052,-0.711659 z"
       id="path4510"
       inkscape:connector-curvature="0"
       transform="scale(0.26458333)" />
    <path
       style="fill:url(#linearGradient905);fill-opacity:1;stroke-width:2.00000003;stroke-miterlimit:4;stroke-dasharray:none"
       d="m 64.087546,27.637008 c -0.417411,-0.369604 -1.190191,-1.01717 -1.71729,-1.439035 l -0.958361,-0.767027 0.370219,-0.677989 c 0.935962,-1.714047 1.553406,-2.774031 1.903197,-3.267275 0.546434,-0.770532 1.199102,-1.350675 1.664018,-1.479112 0.803946,-0.222096 2.025371,0.30242 3.685965,1.582862 l 0.861175,0.664029 -0.926544,1.044682 c -1.174989,1.324805 -2.406856,2.832449 -3.316655,4.059154 -0.391085,0.527308 -0.732602,0.957162 -0.758929,0.955231 -0.02633,-0.0019 -0.389385,-0.305915 -0.806795,-0.67552 z"
       id="path4512"
       inkscape:connector-curvature="0"
       transform="scale(0.26458333)" />
  </g>
  <g
     inkscape:groupmode="layer"
     id="layer3"
     inkscape:label="Layer 3">
    <path
       style="fill:none;stroke:#000000;stroke-width:0.52916667;stroke-linecap:butt;stroke-linejoin:miter;stroke-opacity:1;stroke-miterlimit:4;stroke-dasharray:none"
       d="M 14.646577,5.8161083 C 9.6243349,14.873554 13.218634,18.298711 17.174293,18.00584 23.296349,17.104817 20.803552,9.417625 14.646577,5.8161083 Z"
       id="path4499"
       inkscape:connector-curvature="0"
       sodipodi:nodetypes="ccc" />
    <path
       style="fill:url(#linearGradient889);fill-opacity:1;stroke-width:2.00000003;stroke-miterlimit:4;stroke-dasharray:none"
       d="m 57.882189,39.324419 c -1.24373,-1.090242 -4.299397,-3.227171 -6.4627,-4.519583 l -1.243809,-0.743081 0.51147,-1.243394 c 1.133956,-2.756669 2.29103,-5.219069 3.820546,-8.130605 l 1.038312,-1.976497 0.587733,0.358217 c 2.500654,1.524119 5.832021,4.015836 7.638894,5.713561 l 0.500751,0.470502 -0.575739,0.856204 c -1.558018,2.31699 -3.190703,5.110467 -4.528779,7.748613 -0.482611,0.951514 -0.889188,1.741074 -0.903505,1.754579 -0.01432,0.0135 -0.186746,-0.116329 -0.383174,-0.288516 z"
       id="path4501"
       inkscape:connector-curvature="0"
       transform="scale(0.26458333)" />
  </g>
  <g
     inkscape:groupmode="layer"
     id="layer2"
     inkscape:label="Layer 2">
    <path
       style="fill:none;stroke:#000000;stroke-width:0.52916667;stroke-linecap:butt;stroke-linejoin:miter;stroke-opacity:1;stroke-miterlimit:4;stroke-dasharray:none;fill-opacity:1"
       d="M 13.684589,18.686017 C 13.357306,14.210047 16.377146,6.2562093 21.890511,3.4515348 19.071603,10.678107 27.64196,18.737121 13.684589,18.686017 Z"
       id="path4494"
       inkscape:connector-curvature="0"
       sodipodi:nodetypes="ccc" />
    <path
       style="fill:#8c00ff;fill-opacity:1;stroke-width:2.00000003;stroke-miterlimit:4;stroke-dasharray:none"
       d="m 68.99826,68.455447 c 0,-0.02341 0.09886,-0.616811 0.21968,-1.318666 0.34448,-2.001039 0.430045,-3.00696 0.431325,-5.070742 0.0013,-2.053326 -0.09046,-3.108073 -0.431608,-4.962646 -1.044669,-5.679085 -4.147075,-11.102437 -8.969275,-15.6793 l -1.145496,-1.087217 0.708791,-1.415499 c 4.950236,-9.885917 11.431914,-17.760289 18.740155,-22.76678 0.828486,-0.567553 3.054471,-1.945701 3.142695,-1.945701 0.02441,0 -0.110288,0.512277 -0.299328,1.138393 -1.076966,3.567003 -1.459902,6.550124 -1.458466,11.361607 0.0013,4.392936 0.181202,6.320046 1.3356,14.307825 0.363738,2.516857 0.743667,5.299318 0.844289,6.183247 0.71444,6.27618 0.383618,10.084572 -1.155638,13.303571 -1.670946,3.494402 -5.276138,6.115108 -10.429406,7.581404 -1.275585,0.362951 -1.533318,0.425228 -1.533318,0.370504 z"
       id="path4496"
       inkscape:connector-curvature="0"
       transform="scale(0.26458333)" />
    <rect
       transform="translate(0,-229.26666)"
       style="fill:#00ff80;fill-opacity:1;stroke:#000000;stroke-width:0.52916667;stroke-miterlimit:4;stroke-dasharray:none;stroke-opacity:1"
       id="rect927"
       width="1.6397084"
       height="33.90976"
       x="16.025272"
       y="247.29631" />
  </g>
  <g
     inkscape:label="Layer 1"
     inkscape:groupmode="layer"
     id="layer1"
     transform="translate(0,-229.26666)">
    <path
       style="fill:#00ff80;stroke-width:2.89396787;stroke-miterlimit:4;stroke-dasharray:none;fill-opacity:0"
       d="m 59.266402,194.04713 c -2.453046,-5.139 -4.177909,-11.51553 -4.834631,-17.87283 -0.372132,-3.60236 -0.15332,-14.44351 0.370493,-18.35634 1.061735,-7.93103 2.051767,-12.96895 6.051205,-30.79237 4.541813,-20.24051 5.638925,-28.181689 5.390411,-39.017146 -0.142145,-6.19769 -0.470536,-9.129594 -1.573279,-14.046367 -0.695559,-3.101278 -2.432727,-8.415307 -3.498629,-10.70237 l -0.647333,-1.38896 2.078837,-0.194351 c 1.807397,-0.168973 2.119837,-0.138281 2.392831,0.235061 0.678223,0.927525 2.892005,7.037447 3.719073,10.264443 2.75817,10.761643 2.796977,21.784055 0.131762,37.42456 -0.864703,5.07441 -1.539247,8.28306 -4.539211,21.59201 -3.712835,16.4715 -4.993109,23.92169 -5.576549,32.45115 -0.763321,11.15916 0.97826,21.86505 4.933928,30.32995 1.082823,2.31717 1.095504,2.37373 0.532193,2.37373 -0.317384,0 -1.274865,0.0729 -2.127735,0.16208 l -1.550674,0.16208 z"
       id="path4475"
       inkscape:connector-curvature="0"
       transform="matrix(0.26458333,0,0,0.26458333,0,229.26666)" />
    <path
       style="fill:#00ff80;fill-opacity:0;stroke-width:2.04634428;stroke-miterlimit:4;stroke-dasharray:none"
       d="m 60.103143,195.85977 c -2.859937,-5.48689 -4.719435,-11.68313 -5.602002,-18.66705 -0.383679,-3.03612 -0.437797,-12.33416 -0.09195,-15.79723 0.790515,-7.91557 2.00613,-14.78302 4.788784,-27.05357 3.885424,-17.1334 5.000685,-22.59202 5.946941,-29.10715 2.395546,-16.493733 1.169576,-30.050785 -3.736502,-41.319076 -0.505059,-1.160021 -0.892761,-2.130505 -0.86156,-2.15663 0.0312,-0.02613 1.009306,-0.09233 2.173566,-0.147129 l 2.116837,-0.09963 0.76483,1.638019 c 2.339472,5.010397 4.040546,11.417433 4.852868,18.278163 0.433811,3.663893 0.433568,12.470767 -4.65e-4,16.841999 -0.838451,8.444214 -2.114647,15.334974 -5.986056,32.321434 -2.757839,12.10048 -4.022806,18.478 -4.837723,24.39011 -2.2297,16.17616 -0.895539,28.43859 4.300072,39.52248 0.479283,1.02246 0.85084,1.87913 0.825683,1.90371 -0.02516,0.0246 -0.998678,0.0719 -2.16338,0.10526 l -2.11764,0.0606 z"
       id="path4477"
       inkscape:connector-curvature="0"
       transform="matrix(0.26458333,0,0,0.26458333,0,229.26666)" />
    <path
       style="fill:#00ff80;fill-opacity:0;stroke-width:2.04634428;stroke-miterlimit:4;stroke-dasharray:none"
       d="m 60.103143,195.85977 c -2.859937,-5.48689 -4.719435,-11.68313 -5.602002,-18.66705 -0.383679,-3.03612 -0.437797,-12.33416 -0.09195,-15.79723 0.790515,-7.91557 2.00613,-14.78302 4.788784,-27.05357 3.885424,-17.1334 5.000685,-22.59202 5.946941,-29.10715 2.395546,-16.493733 1.169576,-30.050785 -3.736502,-41.319076 -0.505059,-1.160021 -0.892761,-2.130505 -0.86156,-2.15663 0.0312,-0.02613 1.009306,-0.09233 2.173566,-0.147129 l 2.116837,-0.09963 0.76483,1.638019 c 2.339472,5.010397 4.040546,11.417433 4.852868,18.278163 0.433811,3.663893 0.433568,12.470767 -4.65e-4,16.841999 -0.838451,8.444214 -2.114647,15.334974 -5.986056,32.321434 -2.757839,12.10048 -4.022806,18.478 -4.837723,24.39011 -2.2297,16.17616 -0.895539,28.43859 4.300072,39.52248 0.479283,1.02246 0.85084,1.87913 0.825683,1.90371 -0.02516,0.0246 -0.998678,0.0719 -2.16338,0.10526 l -2.11764,0.0606 z"
       id="path4479"
       inkscape:connector-curvature="0"
       transform="matrix(0.26458333,0,0,0.26458333,0,229.26666)" />
    <path
       style="fill:#00ff80;fill-opacity:0;stroke-width:2.04634428;stroke-miterlimit:4;stroke-dasharray:none"
       d="m 60.103143,195.85977 c -2.859937,-5.48689 -4.719435,-11.68313 -5.602002,-18.66705 -0.383679,-3.03612 -0.437797,-12.33416 -0.09195,-15.79723 0.790515,-7.91557 2.00613,-14.78302 4.788784,-27.05357 3.885424,-17.1334 5.000685,-22.59202 5.946941,-29.10715 2.395546,-16.493733 1.169576,-30.050785 -3.736502,-41.319076 -0.505059,-1.160021 -0.892761,-2.130505 -0.86156,-2.15663 0.0312,-0.02613 1.009306,-0.09233 2.173566,-0.147129 l 2.116837,-0.09963 0.76483,1.638019 c 2.339472,5.010397 4.040546,11.417433 4.852868,18.278163 0.433811,3.663893 0.433568,12.470767 -4.65e-4,16.841999 -0.838451,8.444214 -2.114647,15.334974 -5.986056,32.321434 -2.757839,12.10048 -4.022806,18.478 -4.837723,24.39011 -2.2297,16.17616 -0.895539,28.43859 4.300072,39.52248 0.479283,1.02246 0.85084,1.87913 0.825683,1.90371 -0.02516,0.0246 -0.998678,0.0719 -2.16338,0.10526 l -2.11764,0.0606 z"
       id="path4481"
       inkscape:connector-curvature="0"
       transform="matrix(0.26458333,0,0,0.26458333,0,229.26666)" />
    <path
       style="fill:#00ff80;fill-opacity:0;stroke-width:2.04634428;stroke-miterlimit:4;stroke-dasharray:none"
       d="m 60.103143,195.85977 c -2.859937,-5.48689 -4.719435,-11.68313 -5.602002,-18.66705 -0.383679,-3.03612 -0.437797,-12.33416 -0.09195,-15.79723 0.790515,-7.91557 2.00613,-14.78302 4.788784,-27.05357 3.885424,-17.1334 5.000685,-22.59202 5.946941,-29.10715 2.395546,-16.493733 1.169576,-30.050785 -3.736502,-41.319076 -0.505059,-1.160021 -0.892761,-2.130505 -0.86156,-2.15663 0.0312,-0.02613 1.009306,-0.09233 2.173566,-0.147129 l 2.116837,-0.09963 0.76483,1.638019 c 2.339472,5.010397 4.040546,11.417433 4.852868,18.278163 0.433811,3.663893 0.433568,12.470767 -4.65e-4,16.841999 -0.838451,8.444214 -2.114647,15.334974 -5.986056,32.321434 -2.757839,12.10048 -4.022806,18.478 -4.837723,24.39011 -2.2297,16.17616 -0.895539,28.43859 4.300072,39.52248 0.479283,1.02246 0.85084,1.87913 0.825683,1.90371 -0.02516,0.0246 -0.998678,0.0719 -2.16338,0.10526 l -2.11764,0.0606 z"
       id="path4483"
       inkscape:connector-curvature="0"
       transform="matrix(0.26458333,0,0,0.26458333,0,229.26666)" />
    <path
       style="fill:#00ff80;fill-opacity:0;stroke-width:2.04634428;stroke-miterlimit:4;stroke-dasharray:none"
       d="m 60.103143,195.85977 c -2.859937,-5.48689 -4.719435,-11.68313 -5.602002,-18.66705 -0.383679,-3.03612 -0.437797,-12.33416 -0.09195,-15.79723 0.790515,-7.91557 2.00613,-14.78302 4.788784,-27.05357 3.885424,-17.1334 5.000685,-22.59202 5.946941,-29.10715 2.395546,-16.493733 1.169576,-30.050785 -3.736502,-41.319076 -0.505059,-1.160021 -0.892761,-2.130505 -0.86156,-2.15663 0.0312,-0.02613 1.009306,-0.09233 2.173566,-0.147129 l 2.116837,-0.09963 0.76483,1.638019 c 2.339472,5.010397 4.040546,11.417433 4.852868,18.278163 0.433811,3.663893 0.433568,12.470767 -4.65e-4,16.841999 -0.838451,8.444214 -2.114647,15.334974 -5.986056,32.321434 -2.757839,12.10048 -4.022806,18.478 -4.837723,24.39011 -2.2297,16.17616 -0.895539,28.43859 4.300072,39.52248 0.479283,1.02246 0.85084,1.87913 0.825683,1.90371 -0.02516,0.0246 -0.998678,0.0719 -2.16338,0.10526 l -2.11764,0.0606 z"
       id="path4485"
       inkscape:connector-curvature="0"
       transform="matrix(0.26458333,0,0,0.26458333,0,229.26666)" />
    <path
       style="fill:url(#linearGradient927);stroke:#000000;stroke-width:0.52916667;stroke-linecap:butt;stroke-linejoin:miter;stroke-opacity:1;fill-opacity:1;stroke-miterlimit:4;stroke-dasharray:none"
       d="m 8.3187639,236.32981 c 5.0397791,5.71787 -2.4306363,13.48368 9.7219291,11.32555 0.85086,-3.36714 0.04324,-8.22232 -9.7219291,-11.32555 z"
       id="path4491"
       inkscape:connector-curvature="0"
       sodipodi:nodetypes="ccc" />
    <ellipse
       style="fill:#ffffff;fill-opacity:1;stroke:#000000;stroke-width:0.5291667;stroke-miterlimit:4;stroke-dasharray:none;stroke-opacity:1"
       id="path4516"
       ry="2.721734"
       rx="1.5426954"
       cy="238.17593"
       cx="19.554832" />
    <path
       style="fill:#000000;fill-opacity:0;stroke:none;stroke-width:0.52916667;stroke-miterlimit:4;stroke-dasharray:none;stroke-opacity:1"
       id="path4524"
       sodipodi:type="arc"
       sodipodi:cx="22.832123"
       sodipodi:cy="238.00027"
       sodipodi:rx="0.46065849"
       sodipodi:ry="0.79138762"
       sodipodi:start="5.3472287"
       sodipodi:end="1.619265"
       d="m 23.105316,237.36308 a 0.46065849,0.79138762 0 0 1 0.16084,0.90235 0.46065849,0.79138762 0 0 1 -0.456352,0.5253"
       sodipodi:open="true" />
    <ellipse
       style="fill:#000000;fill-opacity:1;stroke:none;stroke-width:0.73322773;stroke-miterlimit:4;stroke-dasharray:none;stroke-opacity:1"
       id="path4530"
       cx="20.230446"
       cy="238.56129"
       rx="0.64598805"
       ry="1.1666179" />
    <path
       style="fill:#00ff80;stroke:#000000;stroke-width:0.52916667;stroke-linecap:butt;stroke-linejoin:miter;stroke-opacity:1;fill-opacity:1;stroke-miterlimit:4;stroke-dasharray:none"
       d="m 11.833358,249.57301 c -3.0960953,6.00205 -4.2631113,10.93367 -0.280633,11.22533 4.930741,-0.58883 0.663482,-7.40482 0.280633,-11.22533 z"
       id="path4538"
       inkscape:connector-curvature="0"
       sodipodi:nodetypes="ccc" />
    <path
       style="fill:none;stroke:#000000;stroke-width:0.26458332;stroke-linecap:butt;stroke-linejoin:miter;stroke-miterlimit:4;stroke-dasharray:none;stroke-opacity:1"
       d="m 11.751163,260.61644 c -0.83796,-2.10108 -0.339514,-4.34302 -0.341006,-6.64431 -0.677088,5.81582 0.14309,7.27241 0.341006,6.64431 z"
       id="path925"
       inkscape:connector-curvature="0"
       sodipodi:nodetypes="ccc" />
    <path
       style="fill:#802000;fill-opacity:1;stroke:#000000;stroke-width:0.5291667;stroke-linecap:round;stroke-linejoin:round;stroke-miterlimit:4;stroke-dasharray:none;stroke-opacity:1;paint-order:normal"
       id="path905"
       sodipodi:type="arc"
       sodipodi:cx="21.79961"
       sodipodi:cy="244.0882"
       sodipodi:rx="1.7839904"
       sodipodi:ry="1.7445964"
       sodipodi:start="1.9427156"
       sodipodi:end="4.7425292"
       d="m 21.151301,245.71352 a 1.7839904,1.7445964 0 0 1 -1.099754,-1.97368 1.7839904,1.7445964 0 0 1 1.801825,-1.39545 l -0.05376,1.74381 z" />
  </g>
</svg>
